module github.com/AbdulahadAbduqahhorov/E-commerce/auth_service

go 1.19

require (
	github.com/dgrijalva/jwt-go v3.2.0+incompatible
	github.com/google/uuid v1.3.0
	github.com/jmoiron/sqlx v1.3.5
	github.com/joho/godotenv v1.4.0
	github.com/labstack/gommon v0.4.0
	github.com/lib/pq v1.2.0
	github.com/spf13/cast v1.5.0
	github.com/streamingfast/logging v0.0.0-20221209193439-bff11742bf4c
	go.uber.org/zap v1.24.0
	golang.org/x/crypto v0.0.0-20220214200702-86341886e292
	google.golang.org/grpc v1.51.0
	google.golang.org/protobuf v1.28.0
)

require (
	github.com/blendle/zapdriver v1.3.1 // indirect
	github.com/golang/protobuf v1.5.2 // indirect
	github.com/logrusorgru/aurora v2.0.3+incompatible // indirect
	github.com/mattn/go-colorable v0.1.11 // indirect
	github.com/mattn/go-isatty v0.0.14 // indirect
	github.com/mitchellh/go-testing-interface v1.14.1 // indirect
	github.com/rogpeppe/go-internal v1.8.0 // indirect
	github.com/valyala/bytebufferpool v1.0.0 // indirect
	github.com/valyala/fasttemplate v1.2.1 // indirect
	go.uber.org/atomic v1.7.0 // indirect
	go.uber.org/multierr v1.6.0 // indirect
	golang.org/x/net v0.0.0-20220722155237-a158d28d115b // indirect
	golang.org/x/sys v0.0.0-20220722155257-8c9f86f7a55f // indirect
	golang.org/x/term v0.0.0-20210927222741-03fcf44c2211 // indirect
	golang.org/x/text v0.4.0 // indirect
	google.golang.org/genproto v0.0.0-20200526211855-cb27e3aa2013 // indirect
)
